<?xml version="1.0" encoding="UTF-8" standalone="no"?>
<!DOCTYPE svg PUBLIC "-//W3C//DTD SVG 1.1//EN" "http://www.w3.org/Graphics/SVG/1.1/DTD/svg11.dtd">
<svg width="100%" height="100%" viewBox="0 0 270 270" version="1.1" xmlns="http://www.w3.org/2000/svg" xmlns:xlink="http://www.w3.org/1999/xlink" xml:space="preserve" xmlns:serif="http://www.serif.com/" style="fill-rule:evenodd;clip-rule:evenodd;stroke-linejoin:round;stroke-miterlimit:1.41421;">
    <g transform="matrix(1,0,0,1,-500,0)">
        <g id="Artboard2" transform="matrix(0.912162,0,0,1,-29.0541,0)">
            <rect x="580" y="0" width="296" height="270" style="fill:none;"/>
            <g transform="matrix(0.498316,0,0,0.454545,718.885,87.4064)">
                <path d="M0,52.338L0,0L46,26.17L0,52.338ZM102.322,-16.468C100.298,-24.09 94.334,-30.092 86.762,-32.129C73.037,-35.831 18,-35.831 18,-35.831C18,-35.831 -37.037,-35.831 -50.762,-32.129C-58.334,-30.092 -64.298,-24.09 -66.322,-16.468C-70,-2.654 -70,26.169 -70,26.169C-70,26.169 -70,54.991 -66.322,68.806C-64.298,76.428 -58.334,82.43 -50.762,84.468C-37.037,88.169 18,88.169 18,88.169C18,88.169 73.037,88.169 86.762,84.468C94.334,82.43 100.298,76.428 102.322,68.806C106,54.991 106,26.169 106,26.169C106,26.169 106,-2.654 102.322,-16.468" style="fill:white;fill-rule:nonzero;"/>
            </g>
            <g transform="matrix(1.0963,0,0,1,561.951,-9.3098)">
                <text x="78.804px" y="188.034px" style="font-family:'Roboto-Bold', 'Roboto';font-weight:700;font-size:18px;fill:white;">Load a video ﬁrst!</text>
                <text x="25.124px" y="222.034px" style="font-family:'Roboto-Regular', 'Roboto';font-size:16px;fill:white;">Paste a Y<tspan x="91.514px " y="222.034px ">o</tspan>utube link (Ctrl+V<tspan x="223.397px " y="222.034px ">)</tspan> or use</text>
                <text x="60.213px" y="238.034px" style="font-family:'Roboto-Regular', 'Roboto';font-size:16px;fill:white;">the + icon t<tspan x="138.963px " y="238.034px ">o</tspan> load a video.</text>
            </g>
        </g>
    </g>
</svg>
